<svg width="71" height="71" viewBox="0 0 71 71" fill="none" xmlns="http://www.w3.org/2000/svg">
<g filter="url(#filter0_d_2777_1053)">
<circle cx="35.4" cy="22.2999" r="16.7999" fill="#F53838"/>
</g>
<path d="M35.4 5.5C26.1215 5.5 18.6 13.0215 18.6 22.3C18.6 31.5785 26.1215 39.1 35.4 39.1C44.6785 39.1 52.2 31.5785 52.2 22.3C52.2 13.0215 44.6785 5.5 35.4 5.5ZM42.2337 19.262C42.2407 19.4055 42.2425 19.549 42.2425 19.689C42.2425 24.064 38.9157 29.1058 32.8292 29.1058C31.0307 29.1087 29.2697 28.5922 27.7577 27.6183C28.015 27.6498 28.2792 27.662 28.547 27.662C30.0975 27.662 31.5237 27.1353 32.656 26.2463C31.966 26.2327 31.2974 26.0042 30.7434 25.5927C30.1894 25.1811 29.7777 24.607 29.5655 23.9503C30.061 24.0445 30.5715 24.0247 31.0582 23.8925C30.3093 23.7411 29.6358 23.3353 29.152 22.7439C28.6681 22.1526 28.4037 21.4121 28.4035 20.648V20.6078C28.8497 20.8545 29.3607 21.005 29.9032 21.0225C29.2011 20.5551 28.7041 19.8372 28.5138 19.0155C28.3235 18.1938 28.4543 17.3304 28.8795 16.602C29.7106 17.624 30.7472 18.4601 31.922 19.056C33.0968 19.652 34.3836 19.9947 35.6992 20.0618C35.532 19.3518 35.604 18.6065 35.904 17.9416C36.204 17.2768 36.7153 16.7297 37.3584 16.3855C38.0014 16.0412 38.7402 15.919 39.4598 16.0379C40.1794 16.1568 40.8396 16.5102 41.3377 17.043C42.0783 16.8965 42.7884 16.6248 43.4377 16.2398C43.1909 17.0065 42.6742 17.6576 41.9835 18.072C42.6395 17.993 43.28 17.8166 43.884 17.5488C43.4403 18.2136 42.8815 18.7938 42.2337 19.262Z" fill="white"/>
<defs>
<filter id="filter0_d_2777_1053" x="0.600098" y="0.5" width="69.5999" height="69.5999" filterUnits="userSpaceOnUse" color-interpolation-filters="sRGB">
<feFlood flood-opacity="0" result="BackgroundImageFix"/>
<feColorMatrix in="SourceAlpha" type="matrix" values="0 0 0 0 0 0 0 0 0 0 0 0 0 0 0 0 0 0 127 0" result="hardAlpha"/>
<feOffset dy="13"/>
<feGaussianBlur stdDeviation="9"/>
<feColorMatrix type="matrix" values="0 0 0 0 0.0658854 0 0 0 0 0.0730469 0 0 0 0 0.1375 0 0 0 0.08 0"/>
<feBlend mode="normal" in2="BackgroundImageFix" result="effect1_dropShadow_2777_1053"/>
<feBlend mode="normal" in="SourceGraphic" in2="effect1_dropShadow_2777_1053" result="shape"/>
</filter>
</defs>
</svg>
